[
  {
    "cd_pss": 1,
    "tx_nome": "Karlen",
    "tx_mail": "kmaides0@springer.com"
  },
  {
    "cd_pss": 2,
    "tx_nome": "Loleta",
    "tx_mail": "llevins1@walmart.com"
  },
  {
    "cd_pss": 3,
    "tx_nome": "Salomo",
    "tx_mail": "sdemogeot2@hao123.com"
  },
  {
    "cd_pss": 4,
    "tx_nome": "Lowe",
    "tx_mail": "lkobierzycki3@geocities.com"
  },
  {
    "cd_pss": 5,
    "tx_nome": "Wrennie",
    "tx_mail": "wchapman4@example.com"
  },
  {
    "cd_pss": 6,
    "tx_nome": "Anissa",
    "tx_mail": "adensun5@samsung.com"
  },
  {
    "cd_pss": 7,
    "tx_nome": "Kristyn",
    "tx_mail": "kraubenheimer6@auda.org.au"
  },
  {
    "cd_pss": 8,
    "tx_nome": "Carlee",
    "tx_mail": "cjevon7@blog.com"
  },
  {
    "cd_pss": 9,
    "tx_nome": "Kayla",
    "tx_mail": "ktonkinson8@imgur.com"
  },
  {
    "cd_pss": 10,
    "tx_nome": "Laverna",
    "tx_mail": "lsymms9@plala.or.jp"
  },
  {
    "cd_pss": 11,
    "tx_nome": "Jackquelin",
    "tx_mail": "jgirodiasa@twitter.com"
  },
  {
    "cd_pss": 12,
    "tx_nome": "Agneta",
    "tx_mail": "aealdenb@mapy.cz"
  },
  {
    "cd_pss": 13,
    "tx_nome": "Rosalind",
    "tx_mail": "rgyppsc@hostgator.com"
  },
  {
    "cd_pss": 14,
    "tx_nome": "Bearnard",
    "tx_mail": "bhartnupd@geocities.jp"
  },
  {
    "cd_pss": 15,
    "tx_nome": "Bonny",
    "tx_mail": "bgertraye@foxnews.com"
  },
  {
    "cd_pss": 16,
    "tx_nome": "Delainey",
    "tx_mail": "dwoolveridgef@youku.com"
  },
  {
    "cd_pss": 17,
    "tx_nome": "Patric",
    "tx_mail": "pfolliottg@newyorker.com"
  },
  {
    "cd_pss": 18,
    "tx_nome": "Janaya",
    "tx_mail": "jcerieh@wsj.com"
  },
  {
    "cd_pss": 19,
    "tx_nome": "Jeffrey",
    "tx_mail": "jkneviti@harvard.edu"
  },
  {
    "cd_pss": 20,
    "tx_nome": "Nance",
    "tx_mail": "nana@gmail.com"
  }
]